…
資料轉換和資料視覺化的內容很豐富，所以會在未來的課程不斷的加入新的內容，持續堆疊下去。如果有不熟悉的地方，也許可以考慮複習一下先前教過的內容。

Wrangle with Data

Prerequisite

# install.packages("tidyverse")
library(tidyverse)

Tidyverse contains the packages you may need to use in data science, including ggplot2, dplyr, etc. So you do not need to install them individually.

Data

ggplot2::mpg
#> # A tibble: 234 x 11
#>    manufacturer model    displ  year   cyl trans   drv     cty   hwy fl    class
#>    <chr>        <chr>    <dbl> <int> <int> <chr>   <chr> <int> <int> <chr> <chr>
#>  1 audi         a4         1.8  1999     4 auto(l~ f        18    29 p     comp~
#>  2 audi         a4         1.8  1999     4 manual~ f        21    29 p     comp~
#>  3 audi         a4         2    2008     4 manual~ f        20    31 p     comp~
#>  4 audi         a4         2    2008     4 auto(a~ f        21    30 p     comp~
#>  5 audi         a4         2.8  1999     6 auto(l~ f        16    26 p     comp~
#>  6 audi         a4         2.8  1999     6 manual~ f        18    26 p     comp~
#>  7 audi         a4         3.1  2008     6 auto(a~ f        18    27 p     comp~
#>  8 audi         a4 quat~   1.8  1999     4 manual~ 4        18    26 p     comp~
#>  9 audi         a4 quat~   1.8  1999     4 auto(l~ 4        16    25 p     comp~
#> 10 audi         a4 quat~   2    2008     4 manual~ 4        20    28 p     comp~
#> # ... with 224 more rows
…
arrange() and desc()

mutate()

Select columns with select()

df <- select(mpg, manufacturer, cty, hwy, class)
df
summary(df)
table(df %>% select(manufacturer, class))

df <- select(mpg, manufacturer, cty, hwy, class)
df
#> # A tibble: 234 x 4
#>    manufacturer   cty   hwy class  
#>    <chr>        <int> <int> <chr>  
#>  1 audi            18    29 compact
#>  2 audi            21    29 compact
#>  3 audi            20    31 compact
#>  4 audi            21    30 compact
#>  5 audi            16    26 compact
#>  6 audi            18    26 compact
#>  7 audi            18    27 compact
#>  8 audi            18    26 compact
#>  9 audi            16    25 compact
#> 10 audi            20    28 compact
#> # ... with 224 more rows
…
Filter rows with filter()

Logic “and”

filter(df, class == "compact", cty < 20)
#> # A tibble: 21 x 4
#>    manufacturer   cty   hwy class  
#>    <chr>        <int> <int> <chr>  
#>  1 audi            18    29 compact
#>  2 audi            16    26 compact
#>  3 audi            18    26 compact
#>  4 audi            18    27 compact
#>  5 audi            18    26 compact
#>  6 audi            16    25 compact
#>  7 audi            19    27 compact
#>  8 audi            15    25 compact
#>  9 audi            17    25 compact
#> 10 audi            17    25 compact
#> # ... with 11 more rows

Logic “or”

These three are equivalent.

filter(df, class == "compact" | class == "suv")
df %>% filter(class == "compact" | class == "suv")
df %>% filter(class %in% c("compact", "suv"))

filter(df, class == "compact" | class == "suv")
#> # A tibble: 109 x 4
#>    manufacturer   cty   hwy class  
#>    <chr>        <int> <int> <chr>  
#>  1 audi            18    29 compact
#>  2 audi            21    29 compact
#>  3 audi            20    31 compact
#>  4 audi            21    30 compact
#>  5 audi            16    26 compact
#>  6 audi            18    26 compact
#>  7 audi            18    27 compact
#>  8 audi            18    26 compact
#>  9 audi            16    25 compact
#> 10 audi            20    28 compact
#> # ... with 99 more rows
df %>% filter(class == "compact" | class == "suv")
#> # A tibble: 109 x 4
#>    manufacturer   cty   hwy class  
#>    <chr>        <int> <int> <chr>  
#>  1 audi            18    29 compact
#>  2 audi            21    29 compact
#>  3 audi            20    31 compact
#>  4 audi            21    30 compact
#>  5 audi            16    26 compact
#>  6 audi            18    26 compact
#>  7 audi            18    27 compact
#>  8 audi            18    26 compact
#>  9 audi            16    25 compact
#> 10 audi            20    28 compact
#> # ... with 99 more rows
df %>% filter(class %in% c("compact", "suv"))
#> # A tibble: 109 x 4
#>    manufacturer   cty   hwy class  
#>    <chr>        <int> <int> <chr>  
#>  1 audi            18    29 compact
#>  2 audi            21    29 compact
#>  3 audi            20    31 compact
#>  4 audi            21    30 compact
#>  5 audi            16    26 compact
#>  6 audi            18    26 compact
#>  7 audi            18    27 compact
#>  8 audi            18    26 compact
#>  9 audi            16    25 compact
#> 10 audi            20    28 compact
#> # ... with 99 more rows

You can work this way!

mpg %>%
  select(manufacturer, cty, hwy, class) %>%
  filter(class %in% c("compact", "suv"))
#> # A tibble: 109 x 4
#>    manufacturer   cty   hwy class  
#>    <chr>        <int> <int> <chr>  
#>  1 audi            18    29 compact
#>  2 audi            21    29 compact
#>  3 audi            20    31 compact
#>  4 audi            21    30 compact
#>  5 audi            16    26 compact
#>  6 audi            18    26 compact
#>  7 audi            18    27 compact
#>  8 audi            18    26 compact
#>  9 audi            16    25 compact
#> 10 audi            20    28 compact
#> # ... with 99 more rows

在挑出這些資料後，我們想比較不同製造商在其中兩種車型的市區油耗的平均值:

分成兩步驟，分類與取平均值。

Step 1: 分類

mpg %>%
  select(manufacturer, cty, hwy, class) %>%
  filter(class %in% c("compact", "suv")) %>%
  group_by(manufacturer, class)
#> # A tibble: 109 x 4
#> # Groups:   manufacturer, class [15]
#>    manufacturer   cty   hwy class  
#>    <chr>        <int> <int> <chr>  
#>  1 audi            18    29 compact
#>  2 audi            21    29 compact
#>  3 audi            20    31 compact
#>  4 audi            21    30 compact
#>  5 audi            16    26 compact
#>  6 audi            18    26 compact
#>  7 audi            18    27 compact
#>  8 audi            18    26 compact
#>  9 audi            16    25 compact
#> 10 audi            20    28 compact
#> # ... with 99 more rows
…
齊整資料 : tidy data

Homework

10/17 Homework

Wrangle with ggplot2::mpg and show the result.

Select manufacturer, year, and displ.

Filter year is 1999 and displ < 2.

Reference solution

#> # A tibble: 234 x 3
#>    manufacturer  year displ
#>    <chr>        <int> <dbl>
#>  1 audi          1999   1.8
#>  2 audi          1999   1.8
#>  3 audi          2008   2  
#>  4 audi          2008   2  
#>  5 audi          1999   2.8
#>  6 audi          1999   2.8
#>  7 audi          2008   3.1
#>  8 audi          1999   1.8
#>  9 audi          1999   1.8
#> 10 audi          2008   2  
#> # ... with 224 more rows
…
