…
data2.int <- data.int %>%
  gather(-driver, key = "road", value = "time")

data2.int

#> # A tibble: 60 x 3
#>    driver     road   time
#>    <fct>      <chr> <dbl>
#>  1 Hamilton   A        18
#>  2 Hamilton   A        15
#>  3 Hamilton   A        21
#>  4 Bottas     A        16
#>  5 Bottas     A        19
#>  6 Bottas     A        13
#>  7 Verstappen A        21
#>  8 Verstappen A        19
#>  9 Verstappen A        14
#> 10 Leclerc    A        23
#> # ... with 50 more rows
…
