…
group_by() and ungroup()

summarize()and summarise()

arrange() and desc()

mutate()

回想上一次我們做過的:

mpg %>%
  select(manufacturer, cty, hwy, class) %>%
  filter(class %in% c("compact", "suv"))

#> # A tibble: 109 x 4
#>    manufacturer   cty   hwy class  
#>    <chr>        <int> <int> <chr>  
#>  1 audi            18    29 compact
#>  2 audi            21    29 compact
#>  3 audi            20    31 compact
#>  4 audi            21    30 compact
#>  5 audi            16    26 compact
#>  6 audi            18    26 compact
#>  7 audi            18    27 compact
#>  8 audi            18    26 compact
#>  9 audi            16    25 compact
#> 10 audi            20    28 compact
#> # ... with 99 more rows

在挑出這些資料後，我們想比較不同製造商在其中兩種車型的市區油耗的平均值:

分成兩步驟，分類與取平均值。

Step 1: 分類

mpg %>%
  select(manufacturer, cty, hwy, class) %>%
  filter(class %in% c("compact", "suv")) %>%
  group_by(manufacturer, class)

#> # A tibble: 109 x 4
#> # Groups:   manufacturer, class [15]
#>    manufacturer   cty   hwy class  
#>    <chr>        <int> <int> <chr>  
#>  1 audi            18    29 compact
#>  2 audi            21    29 compact
#>  3 audi            20    31 compact
#>  4 audi            21    30 compact
#>  5 audi            16    26 compact
#>  6 audi            18    26 compact
#>  7 audi            18    27 compact
#>  8 audi            18    26 compact
#>  9 audi            16    25 compact
#> 10 audi            20    28 compact
#> # ... with 99 more rows
…
