…
save(df1, df2, df3,  
     file = "mydata.RData")

load("mydata.RData")

缺失值

以 ggplot2::msleep 為例，有許多變數的觀測值並沒有被紀錄。

ggplot2::msleep

#> # A tibble: 83 x 11
#>    name  genus vore  order conservation sleep_total sleep_rem sleep_cycle
#>    <chr> <chr> <chr> <chr> <chr>              <dbl>     <dbl>       <dbl>
#>  1 Chee~ Acin~ carni Carn~ lc                  12.1      NA        NA    
#>  2 Owl ~ Aotus omni  Prim~ <NA>                17         1.8      NA    
#>  3 Moun~ Aplo~ herbi Rode~ nt                  14.4       2.4      NA    
#>  4 Grea~ Blar~ omni  Sori~ lc                  14.9       2.3       0.133
#>  5 Cow   Bos   herbi Arti~ domesticated         4         0.7       0.667
#>  6 Thre~ Brad~ herbi Pilo~ <NA>                14.4       2.2       0.767
#>  7 Nort~ Call~ carni Carn~ vu                   8.7       1.4       0.383
#>  8 Vesp~ Calo~ <NA>  Rode~ <NA>                 7        NA        NA    
#>  9 Dog   Canis carni Carn~ domesticated        10.1       2.9       0.333
#> 10 Roe ~ Capr~ herbi Arti~ lc                   3        NA        NA    
#> # ... with 73 more rows, and 3 more variables: awake <dbl>, brainwt <dbl>,
#> #   bodywt <dbl>
…
也可以針對某些變數的缺失值做處理。

df2 <- msleep %>% drop_na(sleep_rem)
df2

#> # A tibble: 61 x 11
#>    name  genus vore  order conservation sleep_total sleep_rem sleep_cycle
#>    <chr> <chr> <chr> <chr> <chr>              <dbl>     <dbl>       <dbl>
#>  1 Owl ~ Aotus omni  Prim~ <NA>                17         1.8      NA    
#>  2 Moun~ Aplo~ herbi Rode~ nt                  14.4       2.4      NA    
#>  3 Grea~ Blar~ omni  Sori~ lc                  14.9       2.3       0.133
#>  4 Cow   Bos   herbi Arti~ domesticated         4         0.7       0.667
#>  5 Thre~ Brad~ herbi Pilo~ <NA>                14.4       2.2       0.767
#>  6 Nort~ Call~ carni Carn~ vu                   8.7       1.4       0.383
#>  7 Dog   Canis carni Carn~ domesticated        10.1       2.9       0.333
#>  8 Goat  Capri herbi Arti~ lc                   5.3       0.6      NA    
#>  9 Guin~ Cavis herbi Rode~ domesticated         9.4       0.8       0.217
#> 10 Griv~ Cerc~ omni  Prim~ lc                  10         0.7      NA    
#> # ... with 51 more rows, and 3 more variables: awake <dbl>, brainwt <dbl>,
#> #   bodywt <dbl>
…
模擬重複抽樣 100 次，每次抽樣均抽出 100 組樣本，驗證雙尾檢定下 95% 的信賴區間。

在觀察到樣本前，預期樣本的信賴區間有 95% 的可能涵蓋母體平均數，
我們檢驗在重複抽樣 100 次後，有多少次抽樣的信賴區間包含母體平均數。

# 模擬
simulate <- map(1:100, ~ tibble(r = rnorm(100, 0, 2)))
lower_upper <- simulate %>%
  map(~ tibble(lower = mean(.x$r) - qnorm(0.975, 0, 1) * 2 / sqrt(100),
               upper = mean(.x$r) - qnorm(0.025, 0, 1) * 2 / sqrt(100))) %>%
  bind_rows()

lower_upper

#> # A tibble: 100 x 2
#>      lower upper
#>      <dbl> <dbl>
#>  1 -0.366  0.418
#>  2 -0.558  0.226
#>  3 -0.655  0.129
#>  4 -0.144  0.640
#>  5 -0.518  0.266
#>  6 -0.0542 0.730
#>  7  0.0739 0.858
#>  8 -0.605  0.179
#>  9 -0.273  0.511
#> 10 -0.553  0.231
#> # ... with 90 more rows
…
